<svg xmlns="http://www.w3.org/2000/svg" width="16" height="16" viewBox="0 0 16 16">
  <defs>
    <style>
      .cls-1 {
        fill: #cbd0d6;
        fill-rule: evenodd;
      }
    </style>
  </defs>
  <path id="Forma_1" data-name="Forma 1" class="cls-1" d="M15.966,6.082a0.291,0.291,0,0,0-.231-0.2l-5.168-.789L8.256,0.166a0.279,0.279,0,0,0-.512,0L5.432,5.088l-5.168.789a0.29,0.29,0,0,0-.231.2,0.311,0.311,0,0,0,.072.307l3.74,3.831-0.883,5.41a0.308,0.308,0,0,0,.113.294,0.272,0.272,0,0,0,.3.023L8,13.394l4.623,2.554a0.275,0.275,0,0,0,.3-0.023,0.307,0.307,0,0,0,.113-0.294l-0.883-5.41,3.74-3.832A0.311,0.311,0,0,0,15.966,6.082Z"/>
</svg>
